INFO  08:06:59,577 - Compiling source file: C:\Users\Maja\Desktop\CETVRTA GODINA\PP1\PROJEKAT\pp1lab.templateAST\pp1lab.templateAST\workspace\MJCompiler\test\program.mj
INFO  08:06:59,605 - #2 program
INFO  08:06:59,605 - #15 MJProgram
INFO  08:06:59,605 - #15 int
INFO  08:06:59,607 - #15 x
INFO  08:06:59,607 - #5 ;
INFO  08:06:59,607 - #15 int
INFO  08:06:59,607 - #15 y
INFO  08:06:59,607 - #5 ;
INFO  08:06:59,607 - #3 {
INFO  08:06:59,607 - #15 int
INFO  08:06:59,607 - #15 k
INFO  08:06:59,607 - #6 (
INFO  08:06:59,607 - #7 )
INFO  08:06:59,607 - #15 int
INFO  08:06:59,607 - #15 c
INFO  08:06:59,607 - #5 ;
INFO  08:06:59,607 - #3 {
INFO  08:06:59,607 - #15 c
INFO  08:06:59,615 - #12 =
INFO  08:06:59,615 - #14 1
INFO  08:06:59,615 - #5 ;
INFO  08:06:59,617 - #10 return
INFO  08:06:59,617 - #15 c
INFO  08:06:59,617 - #11 +
INFO  08:06:59,617 - #14 2
INFO  08:06:59,638 - #5 ;
INFO  08:06:59,638 - #4 }
INFO  08:06:59,638 - #15 int
INFO  08:06:59,656 - #15 main
INFO  08:06:59,656 - #6 (
INFO  08:06:59,656 - #7 )
INFO  08:06:59,656 - #3 {
INFO  08:06:59,656 - #15 y
INFO  08:06:59,656 - #12 =
INFO  08:06:59,656 - #14 2
INFO  08:06:59,656 - #5 ;
INFO  08:06:59,656 - #15 x
INFO  08:06:59,656 - #12 =
INFO  08:06:59,656 - #15 y
INFO  08:06:59,656 - #11 +
INFO  08:06:59,656 - #14 2
INFO  08:06:59,656 - #5 ;
INFO  08:06:59,656 - #15 y
INFO  08:06:59,658 - #12 =
INFO  08:06:59,658 - #15 k
INFO  08:06:59,658 - #6 (
INFO  08:06:59,658 - #7 )
INFO  08:06:59,658 - #11 +
INFO  08:06:59,658 - #14 3
INFO  08:06:59,658 - #5 ;
INFO  08:06:59,658 - #9 print
INFO  08:06:59,658 - #6 (
INFO  08:06:59,658 - #15 y
INFO  08:06:59,658 - #7 )
INFO  08:06:59,658 - #5 ;
INFO  08:06:59,658 - #43 break
ERROR 08:06:59,658 - 
Sintaksna greska na liniji 15
ERROR 08:06:59,658 - Fatalna greska, parsiranje se ne moze nastaviti na liniji 15
ERROR 08:06:59,678 - Greska na liniji 14 : ime y nije deklarisano! 
INFO  08:06:59,678 - Print calls = 0
ERROR 08:06:59,678 - Parsiranje NIJE uspesno zavrseno!
