INFO  09:55:49,110 - Compiling source file: C:\Users\Maja\Desktop\CETVRTA GODINA\PP1\PROJEKAT\pp1lab.templateAST\pp1lab.templateAST\workspace\MJCompiler\test\test302.mj
INFO  09:55:49,124 - #2 program
INFO  09:55:49,124 - #17 test302
INFO  09:55:49,124 - #22 const
INFO  09:55:49,124 - #17 int
INFO  09:55:49,124 - #17 jedan
INFO  09:55:49,124 - #12 =
INFO  09:55:49,124 - #16 1
INFO  09:55:49,124 - #5 ;
INFO  09:55:49,124 - #17 int
INFO  09:55:49,124 - #17 i
INFO  09:55:49,124 - #5 ;
INFO  09:55:49,124 - #17 bool
INFO  09:55:49,124 - #17 ibool
INFO  09:55:49,124 - #5 ;
INFO  09:55:49,125 - #17 int
INFO  09:55:49,125 - #17 niz
INFO  09:55:49,125 - #14 [
INFO  09:55:49,125 - #15 ]
INFO  09:55:49,125 - #5 ;
INFO  09:55:49,126 - #3 {
INFO  09:55:49,126 - #17 int
INFO  09:55:49,128 - #17 sum
INFO  09:55:49,128 - #6 (
INFO  09:55:49,128 - #17 int
INFO  09:55:49,128 - #17 z
INFO  09:55:49,128 - #8 ,
INFO  09:55:49,128 - #17 int
INFO  09:55:49,128 - #17 d
INFO  09:55:49,128 - #7 )
INFO  09:55:49,128 - #3 {
INFO  09:55:49,128 - #10 return
INFO  09:55:49,128 - #17 z
INFO  09:55:49,128 - #11 +
INFO  09:55:49,129 - #17 d
INFO  09:55:49,129 - #5 ;
INFO  09:55:49,129 - #4 }
INFO  09:55:49,129 - #17 int
INFO  09:55:49,129 - #17 inkrement
INFO  09:55:49,129 - #6 (
INFO  09:55:49,129 - #17 int
INFO  09:55:49,129 - #17 a
INFO  09:55:49,129 - #8 ,
INFO  09:55:49,130 - #17 int
INFO  09:55:49,130 - #17 inc
INFO  09:55:49,130 - #7 )
INFO  09:55:49,130 - #17 int
INFO  09:55:49,130 - #17 pom
INFO  09:55:49,130 - #5 ;
INFO  09:55:49,130 - #3 {
INFO  09:55:49,130 - #20 if
INFO  09:55:49,130 - #6 (
INFO  09:55:49,130 - #17 inc
INFO  09:55:49,130 - #30 ==
INFO  09:55:49,130 - #17 jedan
INFO  09:55:49,130 - #7 )
INFO  09:55:49,130 - #17 pom
INFO  09:55:49,130 - #12 =
INFO  09:55:49,130 - #16 1
INFO  09:55:49,130 - #5 ;
INFO  09:55:49,130 - #21 else
INFO  09:55:49,130 - #20 if
INFO  09:55:49,130 - #6 (
INFO  09:55:49,130 - #17 inc
INFO  09:55:49,130 - #30 ==
INFO  09:55:49,130 - #16 2
INFO  09:55:49,130 - #7 )
INFO  09:55:49,145 - #17 pom
INFO  09:55:49,145 - #12 =
INFO  09:55:49,146 - #17 a
INFO  09:55:49,146 - #5 ;
INFO  09:55:49,146 - #10 return
INFO  09:55:49,146 - #17 sum
INFO  09:55:49,146 - #6 (
INFO  09:55:49,146 - #17 a
INFO  09:55:49,146 - #8 ,
INFO  09:55:49,146 - #17 pom
INFO  09:55:49,146 - #7 )
INFO  09:55:49,146 - #5 ;
INFO  09:55:49,146 - #4 }
INFO  09:55:49,146 - #17 bool
INFO  09:55:49,146 - #17 verify
INFO  09:55:49,146 - #6 (
INFO  09:55:49,146 - #7 )
INFO  09:55:49,152 - #3 {
INFO  09:55:49,152 - #9 print
INFO  09:55:49,152 - #6 (
INFO  09:55:49,152 - #17 v
INFO  09:55:49,152 - #7 )
INFO  09:55:49,152 - #5 ;
INFO  09:55:49,152 - #10 return
INFO  09:55:49,152 - #18 false
INFO  09:55:49,152 - #5 ;
INFO  09:55:49,163 - #4 }
INFO  09:55:49,163 - #13 void
INFO  09:55:49,163 - #17 main
INFO  09:55:49,163 - #6 (
INFO  09:55:49,163 - #7 )
INFO  09:55:49,163 - #3 {
INFO  09:55:49,163 - #20 if
INFO  09:55:49,163 - #6 (
INFO  09:55:49,163 - #16 1
INFO  09:55:49,163 - #31 !=
INFO  09:55:49,163 - #16 1
INFO  09:55:49,163 - #7 )
INFO  09:55:49,163 - #9 print
INFO  09:55:49,163 - #6 (
INFO  09:55:49,163 - #26 -
INFO  09:55:49,163 - #16 6
INFO  09:55:49,163 - #7 )
INFO  09:55:49,163 - #5 ;
INFO  09:55:49,163 - #21 else
INFO  09:55:49,163 - #9 print
INFO  09:55:49,163 - #6 (
INFO  09:55:49,163 - #16 0
INFO  09:55:49,163 - #7 )
INFO  09:55:49,163 - #5 ;
INFO  09:55:49,163 - #17 ibool
INFO  09:55:49,163 - #12 =
INFO  09:55:49,163 - #18 false
INFO  09:55:49,174 - #5 ;
INFO  09:55:49,174 - #17 i
INFO  09:55:49,175 - #12 =
INFO  09:55:49,175 - #16 0
INFO  09:55:49,175 - #5 ;
INFO  09:55:49,175 - #45 for
INFO  09:55:49,175 - #6 (
INFO  09:55:49,175 - #17 i
INFO  09:55:49,175 - #12 =
INFO  09:55:49,175 - #16 0
INFO  09:55:49,175 - #5 ;
INFO  09:55:49,175 - #17 i
INFO  09:55:49,175 - #32 <
INFO  09:55:49,175 - #16 5
INFO  09:55:49,175 - #5 ;
INFO  09:55:49,175 - #17 i
INFO  09:55:49,175 - #40 ++
INFO  09:55:49,175 - #7 )
INFO  09:55:49,190 - #3 {
INFO  09:55:49,190 - #20 if
INFO  09:55:49,190 - #6 (
INFO  09:55:49,190 - #17 i
INFO  09:55:49,193 - #30 ==
INFO  09:55:49,193 - #16 2
INFO  09:55:49,193 - #7 )
INFO  09:55:49,193 - #17 ibool
INFO  09:55:49,193 - #12 =
INFO  09:55:49,193 - #18 true
INFO  09:55:49,193 - #5 ;
INFO  09:55:49,193 - #4 }
INFO  09:55:49,193 - #20 if
INFO  09:55:49,193 - #6 (
INFO  09:55:49,193 - #17 ibool
INFO  09:55:49,193 - #7 )
INFO  09:55:49,193 - #20 if
INFO  09:55:49,193 - #6 (
INFO  09:55:49,193 - #17 i
INFO  09:55:49,193 - #30 ==
INFO  09:55:49,194 - #16 5
INFO  09:55:49,194 - #7 )
INFO  09:55:49,194 - #9 print
INFO  09:55:49,194 - #6 (
INFO  09:55:49,194 - #16 1
INFO  09:55:49,194 - #7 )
INFO  09:55:49,194 - #5 ;
INFO  09:55:49,194 - #21 else
INFO  09:55:49,194 - #9 print
INFO  09:55:49,194 - #6 (
INFO  09:55:49,194 - #26 -
INFO  09:55:49,194 - #16 1
INFO  09:55:49,194 - #7 )
INFO  09:55:49,194 - #5 ;
INFO  09:55:49,194 - #17 niz
INFO  09:55:49,194 - #12 =
INFO  09:55:49,195 - #37 new
INFO  09:55:49,195 - #17 int
INFO  09:55:49,195 - #14 [
INFO  09:55:49,195 - #16 3
INFO  09:55:49,195 - #15 ]
INFO  09:55:49,195 - #5 ;
INFO  09:55:49,195 - #17 niz
INFO  09:55:49,195 - #14 [
INFO  09:55:49,195 - #16 0
INFO  09:55:49,195 - #15 ]
INFO  09:55:49,195 - #12 =
INFO  09:55:49,195 - #16 1
INFO  09:55:49,196 - #5 ;
INFO  09:55:49,196 - #17 niz
INFO  09:55:49,196 - #14 [
INFO  09:55:49,196 - #16 1
INFO  09:55:49,196 - #15 ]
INFO  09:55:49,196 - #12 =
INFO  09:55:49,196 - #16 2
INFO  09:55:49,196 - #5 ;
INFO  09:55:49,196 - #17 niz
INFO  09:55:49,196 - #14 [
INFO  09:55:49,196 - #16 2
INFO  09:55:49,197 - #15 ]
INFO  09:55:49,197 - #12 =
INFO  09:55:49,197 - #17 sum
INFO  09:55:49,197 - #6 (
INFO  09:55:49,197 - #17 niz
INFO  09:55:49,197 - #14 [
INFO  09:55:49,198 - #16 1
INFO  09:55:49,198 - #15 ]
INFO  09:55:49,198 - #8 ,
INFO  09:55:49,198 - #17 niz
INFO  09:55:49,198 - #14 [
INFO  09:55:49,198 - #16 0
INFO  09:55:49,198 - #15 ]
INFO  09:55:49,198 - #7 )
INFO  09:55:49,198 - #11 +
INFO  09:55:49,198 - #16 1
INFO  09:55:49,198 - #5 ;
INFO  09:55:49,198 - #20 if
INFO  09:55:49,198 - #6 (
INFO  09:55:49,198 - #17 niz
INFO  09:55:49,198 - #14 [
INFO  09:55:49,198 - #16 2
INFO  09:55:49,198 - #15 ]
INFO  09:55:49,198 - #30 ==
INFO  09:55:49,198 - #16 4
INFO  09:55:49,199 - #39 ||
INFO  09:55:49,199 - #17 verify
INFO  09:55:49,199 - #6 (
INFO  09:55:49,199 - #7 )
INFO  09:55:49,199 - #7 )
INFO  09:55:49,199 - #9 print
INFO  09:55:49,200 - #6 (
INFO  09:55:49,200 - #17 ord
INFO  09:55:49,200 - #6 (
INFO  09:55:49,200 - #17 A
INFO  09:55:49,200 - #7 )
INFO  09:55:49,200 - #7 )
INFO  09:55:49,200 - #5 ;
INFO  09:55:49,200 - #21 else
INFO  09:55:49,200 - #9 print
INFO  09:55:49,200 - #6 (
INFO  09:55:49,200 - #17 ord
INFO  09:55:49,200 - #6 (
INFO  09:55:49,201 - #17 a
INFO  09:55:49,201 - #7 )
INFO  09:55:49,201 - #7 )
INFO  09:55:49,201 - #5 ;
INFO  09:55:49,201 - #9 print
INFO  09:55:49,201 - #6 (
INFO  09:55:49,201 - #17 eol
INFO  09:55:49,201 - #7 )
INFO  09:55:49,201 - #5 ;
INFO  09:55:49,201 - #17 i
INFO  09:55:49,201 - #12 =
INFO  09:55:49,201 - #16 0
INFO  09:55:49,202 - #5 ;
INFO  09:55:49,202 - #45 for
INFO  09:55:49,202 - #6 (
INFO  09:55:49,202 - #5 ;
INFO  09:55:49,202 - #17 i
INFO  09:55:49,202 - #32 <
INFO  09:55:49,202 - #16 10
INFO  09:55:49,202 - #5 ;
INFO  09:55:49,202 - #7 )
INFO  09:55:49,202 - #3 {
INFO  09:55:49,202 - #20 if
INFO  09:55:49,203 - #6 (
INFO  09:55:49,203 - #17 i
INFO  09:55:49,203 - #30 ==
INFO  09:55:49,203 - #16 3
INFO  09:55:49,203 - #7 )
INFO  09:55:49,203 - #3 {
INFO  09:55:49,203 - #17 i
INFO  09:55:49,203 - #40 ++
INFO  09:55:49,203 - #5 ;
INFO  09:55:49,203 - #43 continue
INFO  09:55:49,203 - #5 ;
INFO  09:55:49,203 - #4 }
INFO  09:55:49,203 - #20 if
INFO  09:55:49,203 - #6 (
INFO  09:55:49,203 - #17 i
INFO  09:55:49,203 - #30 ==
INFO  09:55:49,203 - #16 4
INFO  09:55:49,203 - #7 )
INFO  09:55:49,203 - #42 break
INFO  09:55:49,203 - #5 ;
INFO  09:55:49,203 - #17 i
INFO  09:55:49,203 - #12 =
INFO  09:55:49,203 - #17 inkrement
INFO  09:55:49,203 - #6 (
INFO  09:55:49,203 - #17 i
INFO  09:55:49,203 - #8 ,
INFO  09:55:49,203 - #16 1
INFO  09:55:49,204 - #7 )
INFO  09:55:49,204 - #5 ;
INFO  09:55:49,204 - #4 }
INFO  09:55:49,204 - #20 if
INFO  09:55:49,204 - #6 (
INFO  09:55:49,204 - #17 i
INFO  09:55:49,204 - #30 ==
INFO  09:55:49,204 - #16 3
INFO  09:55:49,204 - #38 &&
INFO  09:55:49,204 - #17 verify
INFO  09:55:49,204 - #6 (
INFO  09:55:49,204 - #7 )
INFO  09:55:49,204 - #7 )
INFO  09:55:49,204 - #9 print
INFO  09:55:49,204 - #6 (
INFO  09:55:49,204 - #16 4
INFO  09:55:49,204 - #7 )
INFO  09:55:49,204 - #5 ;
INFO  09:55:49,204 - #21 else
INFO  09:55:49,204 - #9 print
INFO  09:55:49,204 - #6 (
INFO  09:55:49,204 - #26 -
INFO  09:55:49,204 - #16 4
INFO  09:55:49,204 - #7 )
INFO  09:55:49,204 - #5 ;
INFO  09:55:49,204 - #44 read
INFO  09:55:49,204 - #6 (
INFO  09:55:49,204 - #17 niz
INFO  09:55:49,204 - #14 [
INFO  09:55:49,204 - #16 0
INFO  09:55:49,205 - #15 ]
INFO  09:55:49,205 - #7 )
INFO  09:55:49,205 - #5 ;
INFO  09:55:49,205 - #44 read
INFO  09:55:49,205 - #6 (
INFO  09:55:49,205 - #17 niz
INFO  09:55:49,205 - #14 [
INFO  09:55:49,205 - #16 1
INFO  09:55:49,205 - #15 ]
INFO  09:55:49,205 - #7 )
INFO  09:55:49,205 - #5 ;
INFO  09:55:49,205 - #44 read
INFO  09:55:49,205 - #6 (
INFO  09:55:49,205 - #17 niz
INFO  09:55:49,205 - #14 [
INFO  09:55:49,205 - #16 2
INFO  09:55:49,205 - #15 ]
INFO  09:55:49,205 - #7 )
INFO  09:55:49,205 - #5 ;
INFO  09:55:49,205 - #9 print
INFO  09:55:49,205 - #6 (
INFO  09:55:49,205 - #17 eol
INFO  09:55:49,205 - #7 )
INFO  09:55:49,205 - #5 ;
INFO  09:55:49,205 - #9 print
INFO  09:55:49,205 - #6 (
INFO  09:55:49,205 - #17 sum
INFO  09:55:49,205 - #6 (
INFO  09:55:49,205 - #17 sum
INFO  09:55:49,205 - #6 (
INFO  09:55:49,205 - #17 niz
INFO  09:55:49,205 - #14 [
INFO  09:55:49,205 - #16 0
INFO  09:55:49,205 - #15 ]
INFO  09:55:49,205 - #8 ,
INFO  09:55:49,205 - #17 niz
INFO  09:55:49,205 - #14 [
INFO  09:55:49,205 - #16 1
INFO  09:55:49,205 - #15 ]
INFO  09:55:49,205 - #7 )
INFO  09:55:49,205 - #8 ,
INFO  09:55:49,205 - #17 niz
INFO  09:55:49,205 - #14 [
INFO  09:55:49,205 - #16 2
INFO  09:55:49,205 - #15 ]
INFO  09:55:49,205 - #7 )
INFO  09:55:49,205 - #7 )
INFO  09:55:49,205 - #5 ;
INFO  09:55:49,205 - #9 print
INFO  09:55:49,206 - #6 (
INFO  09:55:49,208 - #17 eol
INFO  09:55:49,208 - #7 )
INFO  09:55:49,210 - #5 ;
INFO  09:55:49,210 - #9 print
INFO  09:55:49,210 - #6 (
INFO  09:55:49,211 - #17 inkrement
INFO  09:55:49,211 - #6 (
INFO  09:55:49,211 - #17 niz
INFO  09:55:49,211 - #14 [
INFO  09:55:49,211 - #16 2
INFO  09:55:49,211 - #15 ]
INFO  09:55:49,211 - #8 ,
INFO  09:55:49,211 - #16 2
INFO  09:55:49,212 - #7 )
INFO  09:55:49,217 - #7 )
INFO  09:55:49,217 - #5 ;
INFO  09:55:49,219 - #4 }
INFO  09:55:49,220 - #4 }
