INFO  22:49:31,323 - Compiling source file: C:\Users\Maja\Desktop\CETVRTA GODINA\PP1\PROJEKAT\pp1lab.templateAST\pp1lab.templateAST\workspace\MJCompiler\test\program.mj
INFO  22:49:31,338 - #2 program
INFO  22:49:31,338 - #17 MJProgram
INFO  22:49:31,338 - #17 int
INFO  22:49:31,338 - #17 x
INFO  22:49:31,338 - #5 ;
INFO  22:49:31,338 - #17 int
INFO  22:49:31,338 - #17 y
INFO  22:49:31,338 - #5 ;
INFO  22:49:31,338 - #3 {
INFO  22:49:31,338 - #17 int
INFO  22:49:31,338 - #17 k
INFO  22:49:31,338 - #6 (
INFO  22:49:31,338 - #7 )
INFO  22:49:31,338 - #17 int
INFO  22:49:31,338 - #17 c
INFO  22:49:31,338 - #5 ;
INFO  22:49:31,338 - #3 {
INFO  22:49:31,338 - #17 c
INFO  22:49:31,338 - #12 =
INFO  22:49:31,338 - #16 1
INFO  22:49:31,338 - #5 ;
INFO  22:49:31,338 - #10 return
INFO  22:49:31,338 - #17 c
INFO  22:49:31,338 - #11 +
INFO  22:49:31,338 - #16 2
INFO  22:49:31,338 - #5 ;
INFO  22:49:31,338 - #4 }
INFO  22:49:31,338 - #17 int
INFO  22:49:31,338 - #17 main
INFO  22:49:31,338 - #6 (
INFO  22:49:31,338 - #7 )
INFO  22:49:31,338 - #3 {
INFO  22:49:31,338 - #17 y
INFO  22:49:31,338 - #12 =
INFO  22:49:31,338 - #16 2
INFO  22:49:31,338 - #5 ;
INFO  22:49:31,338 - #17 x
INFO  22:49:31,338 - #12 =
INFO  22:49:31,338 - #17 y
INFO  22:49:31,338 - #11 +
INFO  22:49:31,338 - #16 2
INFO  22:49:31,338 - #5 ;
INFO  22:49:31,338 - #17 y
INFO  22:49:31,338 - #12 =
INFO  22:49:31,338 - #17 k
INFO  22:49:31,338 - #6 (
INFO  22:49:31,338 - #7 )
INFO  22:49:31,338 - #11 +
INFO  22:49:31,338 - #16 3
INFO  22:49:31,338 - #5 ;
INFO  22:49:31,338 - #9 print
INFO  22:49:31,338 - #6 (
INFO  22:49:31,338 - #17 y
INFO  22:49:31,338 - #7 )
INFO  22:49:31,338 - #5 ;
INFO  22:49:31,338 - #10 return
INFO  22:49:31,338 - #16 0
INFO  22:49:31,338 - #5 ;
INFO  22:49:31,338 - #4 }
INFO  22:49:31,338 - #4 }
