INFO  16:02:13,811 - Compiling source file: C:\Users\Maja\Desktop\CETVRTA GODINA\PP1\PROJEKAT\pp1lab.templateAST\pp1lab.templateAST\workspace\MJCompiler\test\program.mj
INFO  16:02:13,827 - #2 program
INFO  16:02:13,827 - #15 MJProgram
INFO  16:02:13,827 - #15 int
INFO  16:02:13,827 - #15 x
INFO  16:02:13,827 - #5 ;
INFO  16:02:13,827 - #15 int
INFO  16:02:13,827 - #15 y
INFO  16:02:13,827 - #5 ;
INFO  16:02:13,827 - #3 {
INFO  16:02:13,827 - #15 int
INFO  16:02:13,827 - #15 k
INFO  16:02:13,827 - #6 (
INFO  16:02:13,827 - #7 )
INFO  16:02:13,827 - #15 int
INFO  16:02:13,827 - #15 c
INFO  16:02:13,827 - #5 ;
INFO  16:02:13,827 - #3 {
INFO  16:02:13,827 - #15 c
INFO  16:02:13,827 - #12 =
INFO  16:02:13,827 - #14 1
INFO  16:02:13,843 - #5 ;
INFO  16:02:13,843 - #10 return
INFO  16:02:13,843 - #15 c
INFO  16:02:13,843 - #24 *
INFO  16:02:13,843 - #14 2
INFO  16:02:13,843 - #5 ;
INFO  16:02:13,843 - #4 }
INFO  16:02:13,843 - #15 int
INFO  16:02:13,843 - #15 main
INFO  16:02:13,843 - #6 (
INFO  16:02:13,843 - #7 )
INFO  16:02:13,843 - #3 {
INFO  16:02:13,843 - #15 y
INFO  16:02:13,843 - #12 =
INFO  16:02:13,843 - #14 2
INFO  16:02:13,843 - #5 ;
INFO  16:02:13,858 - #15 x
INFO  16:02:13,858 - #12 =
INFO  16:02:13,858 - #15 y
INFO  16:02:13,858 - #11 +
INFO  16:02:13,858 - #14 2
INFO  16:02:13,858 - #5 ;
INFO  16:02:13,858 - #15 y
INFO  16:02:13,858 - #12 =
INFO  16:02:13,858 - #15 k
INFO  16:02:13,858 - #6 (
INFO  16:02:13,858 - #7 )
INFO  16:02:13,858 - #11 +
INFO  16:02:13,858 - #14 3
INFO  16:02:13,858 - #5 ;
INFO  16:02:13,858 - #9 print
INFO  16:02:13,858 - #6 (
INFO  16:02:13,858 - #15 y
INFO  16:02:13,858 - #7 )
INFO  16:02:13,858 - #5 ;
INFO  16:02:13,858 - #10 return
INFO  16:02:13,858 - #14 0
INFO  16:02:13,858 - #5 ;
INFO  16:02:13,858 - #4 }
INFO  16:02:13,858 - #4 }
