INFO  14:22:02,813 - Compiling source file: C:\Users\Maja\Desktop\CETVRTA GODINA\PP1\PROJEKAT\pp1lab.templateAST\pp1lab.templateAST\workspace\MJCompiler\test\program.mj
INFO  14:22:02,813 - #2 program
INFO  14:22:02,813 - #15 MJProgram
INFO  14:22:02,813 - #15 int
INFO  14:22:02,813 - #15 x
INFO  14:22:02,813 - #5 ;
INFO  14:22:02,813 - #15 int
INFO  14:22:02,813 - #15 y
INFO  14:22:02,813 - #5 ;
INFO  14:22:02,813 - #3 {
INFO  14:22:02,813 - #15 int
INFO  14:22:02,813 - #15 k
INFO  14:22:02,813 - #6 (
INFO  14:22:02,813 - #7 )
INFO  14:22:02,813 - #15 int
INFO  14:22:02,813 - #15 c
INFO  14:22:02,813 - #5 ;
INFO  14:22:02,813 - #3 {
INFO  14:22:02,813 - #15 c
INFO  14:22:02,813 - #12 =
INFO  14:22:02,813 - #14 1
INFO  14:22:02,813 - #5 ;
INFO  14:22:02,813 - #10 return
INFO  14:22:02,813 - #15 c
INFO  14:22:02,813 - #11 +
INFO  14:22:02,813 - #14 2
INFO  14:22:02,813 - #5 ;
INFO  14:22:02,813 - #4 }
INFO  14:22:02,828 - #15 int
INFO  14:22:02,828 - #15 main
INFO  14:22:02,828 - #6 (
INFO  14:22:02,828 - #7 )
INFO  14:22:02,828 - #3 {
INFO  14:22:02,828 - #15 y
INFO  14:22:02,828 - #12 =
INFO  14:22:02,828 - #14 2
INFO  14:22:02,828 - #5 ;
INFO  14:22:02,828 - #15 x
INFO  14:22:02,828 - #12 =
INFO  14:22:02,828 - #15 y
INFO  14:22:02,828 - #14 2
INFO  14:22:02,828 - #5 ;
INFO  14:22:02,828 - #15 y
INFO  14:22:02,828 - #12 =
INFO  14:22:02,828 - #15 k
INFO  14:22:02,828 - #6 (
INFO  14:22:02,828 - #7 )
INFO  14:22:02,828 - #11 +
INFO  14:22:02,828 - #14 3
INFO  14:22:02,828 - #5 ;
INFO  14:22:02,828 - #9 print
INFO  14:22:02,828 - #6 (
INFO  14:22:02,828 - #15 y
INFO  14:22:02,828 - #7 )
INFO  14:22:02,828 - #5 ;
INFO  14:22:02,828 - #10 return
INFO  14:22:02,828 - #14 0
INFO  14:22:02,828 - #5 ;
INFO  14:22:02,828 - #4 }
INFO  14:22:02,828 - #4 }
